<?xml version="1.0" encoding="UTF-8"?>
<session version="1.0">
<refactoring comment="Rename resource &apos;I2C 429/Core/Src/main.c&apos; to &apos;429_main.c&apos;" description="Rename resource &apos;main.c&apos;" flags="7" id="org.eclipse.ltk.core.refactoring.rename.resource" input="Core/Src/main.c" name="429_main.c" stamp="1660468482013" updateReferences="false"/>
</session>