main.c:61:6:HAL_ADC_ConvCpltCallback	16	static
main.c:72:5:main	8	static
main.c:117:6:SystemClock_Config	88	static
main.c:162:13:MX_ADC1_Init	24	static
main.c:212:13:MX_GPIO_Init	16	static
main.c:229:6:Error_Handler	4	static,ignoring_inline_asm
